SDRAM_lattice/Simulacion/sdr_tb.vcd
$date
	Wed May  3 10:04:10 2023
$end
$version
	Icarus Verilog
$end
$timescale
	1ps
$end
$scope module sdr_tb $end
$scope module UUT $end
$var wire 4 ! sdr_DQ [3:0] $end
$var wire 1 " sdr_DQM $end
$var wire 23 # sys_A [22:0] $end
$var wire 1 $ sys_ADSn $end
$var wire 1 % sys_CLK $end
$var wire 16 & sys_D [15:0] $end
$var wire 1 ' sys_DLY_100US $end
$var wire 1 ( sys_REF_REQ $end
$var wire 1 ) sys_RESET $end
$var wire 1 * sys_R_Wn $end
$var wire 1 + sys_REF_ACK $end
$var wire 1 , sys_INIT_DONE $end
$var wire 1 - sys_D_VALID $end
$var wire 1 . sys_CYC_END $end
$var wire 1 / sdr_WEn $end
$var wire 1 0 sdr_RASn $end
$var wire 1 1 sdr_CSn $end
$var wire 1 2 sdr_CKE $end
$var wire 1 3 sdr_CASn $end
$var wire 2 4 sdr_BA [1:0] $end
$var wire 12 5 sdr_A [11:0] $end
$var wire 4 6 iState [3:0] $end
$var wire 4 7 clkCNT [3:0] $end
$var wire 4 8 cState [3:0] $end
$scope module U1 $end
$var wire 1 $ sys_ADSn $end
$var wire 1 % sys_CLK $end
$var wire 1 ' sys_DLY_100US $end
$var wire 1 ( sys_REF_REQ $end
$var wire 1 ) sys_RESET $end
$var wire 1 * sys_R_Wn $end
$var reg 4 9 cState [3:0] $end
$var reg 4 : clkCNT [3:0] $end
$var reg 4 ; iState [3:0] $end
$var reg 1 < syncResetClkCNT $end
$var reg 1 . sys_CYC_END $end
$var reg 1 , sys_INIT_DONE $end
$var reg 1 + sys_REF_ACK $end
$upscope $end
$scope module U2 $end
$var wire 4 = cState [3:0] $end
$var wire 4 > iState [3:0] $end
$var wire 23 ? sys_A [22:0] $end
$var wire 1 % sys_CLK $end
$var wire 1 ) sys_RESET $end
$var reg 12 @ sdr_A [11:0] $end
$var reg 2 A sdr_BA [1:0] $end
$var reg 1 3 sdr_CASn $end
$var reg 1 2 sdr_CKE $end
$var reg 1 1 sdr_CSn $end
$var reg 1 0 sdr_RASn $end
$var reg 1 / sdr_WEn $end
$upscope $end
$scope module U3 $end
$var wire 4 B cState [3:0] $end
$var wire 4 C clkCNT [3:0] $end
$var wire 4 D sdr_DQ [3:0] $end
$var wire 1 % sys_CLK $end
$var wire 16 E sys_D [15:0] $end
$var wire 1 - sys_D_VALID $end
$var wire 1 ) sys_RESET $end
$var wire 1 F stateWRITEA $end
$var wire 4 G cnt3_sdrdq [3:0] $end
$var wire 4 H cnt2_sdrdq [3:0] $end
$var wire 4 I cnt1_sdrdq [3:0] $end
$var wire 4 J cnt0_sdrdq [3:0] $end
$var reg 1 K enableSdrDQ $end
$var reg 1 L enableSysD $end
$var reg 16 M regSdrDQ [15:0] $end
$var reg 16 N regSysD [15:0] $end
$var reg 4 O regSysDX [3:0] $end
$upscope $end
$upscope $end
$upscope $end
$enddefinitions $end
#0
$dumpvars
bx O
bx N
bx M
xL
xK
bx J
bx I
bx H
bx G
xF
bx E
bx D
bx C
bx B
bx A
bx @
bx ?
bx >
bx =
x<
bx ;
bx :
bx 9
bx 8
bx 7
bx 6
bx 5
bx 4
x3
x2
x1
x0
x/
x.
x-
x,
x+
x*
x)
x(
x'
bx &
x%
x$
bx #
x"
bx !
$end
#1000
0%
b11111111111111111111111 #
b11111111111111111111111 ?
1)
0(
0'
1$
1*
#2000
0"
#3000
b0 J
b0 I
b0 H
b0 G
b0 6
b0 ;
b0 >
0,
b0 8
b0 9
b0 =
b0 B
0+
1.
b111111111111 5
b111111111111 @
b11 4
b11 A
02
11
10
13
1/
b0 M
0L
b0 O
0K
b0 N
#5000
1<
0F
bz &
bz E
bz !
bz D
0-
#110000
1%
#112000
b0 7
b0 :
b0 C
#120000
0%
#130000
1%
#140000
0%
#150000
1%
#160000
0%
#170000
1%
#180000
0%
#190000
1%
#200000
0%
#210000
1%
#220000
0%
#230000
1%
#240000
0%
#250000
1%
#260000
0%
#270000
1%
#280000
0%
#290000
1%
#300000
0%
#310000
1%
#320000
0%
#330000
1%
#340000
0%
#350000
1%
#360000
0%
#370000
1%
#380000
0%
#390000
1%
#400000
0%
#410000
1%
#420000
0%
#430000
1%
#440000
0%
#450000
1%
#460000
0%
#470000
1%
#480000
0%
#490000
1%
#500000
0%
#510000
1%
#520000
0%
#530000
1%
#540000
0%
#550000
1%
#560000
0%
#570000
1%
#580000
0%
#590000
1%
#600000
0%
#610000
1%
#620000
0%
#630000
1%
#640000
0%
#650000
1%
#660000
0%
#670000
1%
#680000
0%
#690000
1%
#700000
0%
#710000
1%
#720000
0%
#730000
1%
#740000
0%
#750000
1%
#760000
0%
#770000
1%
#780000
0%
#790000
1%
#800000
0%
#810000
1%
#820000
0%
#830000
1%
#840000
0%
#850000
1%
#860000
0%
#870000
1%
#880000
0%
#890000
1%
#900000
0%
#910000
1%
#920000
0%
#930000
1%
#940000
0%
#950000
1%
#960000
0%
#970000
1%
#980000
0%
#990000
1%
#1000000
0%
#1010000
1%
#1020000
0%
#1030000
1%
#1040000
0%
#1050000
1%
#1060000
0%
#1070000
1%
#1080000
0%
#1090000
1%
#1100000
0%
#1110000
1%
#1111000
0)
#1120000
0%
#1130000
1%
#1132000
12
01
bz N
#1140000
0%
#1150000
1%
#1152000
bz O
